…
``` r
meta_file_name = paste0(meta_dir, "index.csv")
write.csv(results, meta_file_name, row.names = FALSE)
```

``` r
print(results)
```

    ## # A tibble: 995 x 12
    ##    index     s     d     p     q     n   rep  mean  vara  seed phi   theta
    ##    <dbl> <dbl> <dbl> <dbl> <dbl> <int> <int> <int> <dbl> <dbl> <chr> <chr>
    ##  1     1     0     0     1     0   340     1   176 0.639    40 0.99  0    
    ##  2     2     0     0     1     0   116     2   308 2.21     41 0.99  0    
    ##  3     3     0     0     1     0  1090     3   140 1.64     42 0.99  0    
    ##  4     4     0     0     1     0    78     4    48 0.213    43 0.99  0    
    ##  5     5     0     0     1     0    60     5    32 0.103    44 0.99  0    
    ##  6     6     0     0     1     0   540     1   612 3.54     40 0.98  0    
    ##  7     7     0     0     1     0   510     2  -521 5.28     41 0.98  0    
    ##  8     8     0     0     1     0    48     3   233 2.96     42 0.98  0    
    ##  9     9     0     0     1     0   499     4  -461 1.28     43 0.98  0    
    ## 10    10     0     0     1     0   791     5   946 0.969    44 0.98  0    
    ## # ... with 985 more rows

``` r
print(paste0("Total: ", n_total, " Error: ", n_error, " Pass: ", n_pass))
```

    ## [1] "Total: 995 Error: 0 Pass: 995"

``` r
results %>% 
  group_by(s, d) %>% 
  mutate(n=n(), mean_p= mean(p), sd_p = sd(p), mean_q= mean(q), sd_q = sd(q))
```

    ## # A tibble: 995 x 16
    ## # Groups:   s, d [1]
    ##    index     s     d     p     q     n   rep  mean  vara  seed phi   theta
    ##    <dbl> <dbl> <dbl> <dbl> <dbl> <int> <int> <int> <dbl> <dbl> <chr> <chr>
    ##  1     1     0     0     1     0   995     1   176 0.639    40 0.99  0    
    ##  2     2     0     0     1     0   995     2   308 2.21     41 0.99  0    
    ##  3     3     0     0     1     0   995     3   140 1.64     42 0.99  0    
    ##  4     4     0     0     1     0   995     4    48 0.213    43 0.99  0    
    ##  5     5     0     0     1     0   995     5    32 0.103    44 0.99  0    
    ##  6     6     0     0     1     0   995     1   612 3.54     40 0.98  0    
    ##  7     7     0     0     1     0   995     2  -521 5.28     41 0.98  0    
    ##  8     8     0     0     1     0   995     3   233 2.96     42 0.98  0    
    ##  9     9     0     0     1     0   995     4  -461 1.28     43 0.98  0    
    ## 10    10     0     0     1     0   995     5   946 0.969    44 0.98  0    
    ## # ... with 985 more rows, and 4 more variables: mean_p <dbl>, sd_p <dbl>,
    ## #   mean_q <dbl>, sd_q <dbl>
