…
``` r
meta_file_name = paste0(meta_dir, "index.csv")
write.csv(results, meta_file_name, row.names = FALSE)
```

``` r
print(results)
```

    ## # A tibble: 995 x 12
    ##    index     s     d     p     q     n   rep  mean    vara  seed phi   theta
    ##    <dbl> <dbl> <dbl> <dbl> <dbl> <int> <int> <int>   <dbl> <dbl> <chr> <chr>
    ##  1     1     0     0     0     1   340     1   176 0.639      40 0     0.99 
    ##  2     2     0     0     0     1  1222     2  -865 0.776      41 0     0.99 
    ##  3     3     0     0     0     1  1647     3  -355 1.30       42 0     0.99 
    ##  4     4     0     0     0     1   220     4  -267 1.51       43 0     0.99 
    ##  5     5     0     0     0     1   183     5   447 6.95       44 0     0.99 
    ##  6     6     0     0     0     1   788     1   -14 0.00715    40 0     0.98 
    ##  7     7     0     0     0     1   886     2   505 4.28       41 0     0.98 
    ##  8     8     0     0     0     1  1469     3    -8 0.0332     42 0     0.98 
    ##  9     9     0     0     0     1    20     4   915 8.12       43 0     0.98 
    ## 10    10     0     0     0     1   747     5  -297 3.18       44 0     0.98 
    ## # ... with 985 more rows

``` r
print(paste0("Total: ", n_total, " Error: ", n_error, " Pass: ", n_pass))
```

    ## [1] "Total: 995 Error: 0 Pass: 995"

``` r
results %>% 
  group_by(s, d) %>% 
  mutate(n=n(), mean_p= mean(p), sd_p = sd(p), mean_q= mean(q), sd_q = sd(q))
```

    ## # A tibble: 995 x 16
    ## # Groups:   s, d [1]
    ##    index     s     d     p     q     n   rep  mean    vara  seed phi   theta
    ##    <dbl> <dbl> <dbl> <dbl> <dbl> <int> <int> <int>   <dbl> <dbl> <chr> <chr>
    ##  1     1     0     0     0     1   995     1   176 0.639      40 0     0.99 
    ##  2     2     0     0     0     1   995     2  -865 0.776      41 0     0.99 
    ##  3     3     0     0     0     1   995     3  -355 1.30       42 0     0.99 
    ##  4     4     0     0     0     1   995     4  -267 1.51       43 0     0.99 
    ##  5     5     0     0     0     1   995     5   447 6.95       44 0     0.99 
    ##  6     6     0     0     0     1   995     1   -14 0.00715    40 0     0.98 
    ##  7     7     0     0     0     1   995     2   505 4.28       41 0     0.98 
    ##  8     8     0     0     0     1   995     3    -8 0.0332     42 0     0.98 
    ##  9     9     0     0     0     1   995     4   915 8.12       43 0     0.98 
    ## 10    10     0     0     0     1   995     5  -297 3.18       44 0     0.98 
    ## # ... with 985 more rows, and 4 more variables: mean_p <dbl>, sd_p <dbl>,
    ## #   mean_q <dbl>, sd_q <dbl>
