…
``` r
info_file_name = paste0(info_dir, "info.csv")
write.csv(results, info_file_name, row.names = FALSE)
```

``` r
print(results)
```

    ## # A tibble: 520 x 12
    ##    index     s     d     p     q     n   rep  mean   vara  seed phi      theta  
    ##    <dbl> <int> <int> <int> <int> <int> <int> <int>  <dbl> <dbl> <chr>    <chr>  
    ##  1     1     1     0     0     4    16     1    97 0.0464    40 0        0.6314~
    ##  2     2     1     0     6     4    16     2   991 4.29      41 -0.0422~ -0.085~
    ##  3     3     1     0     9    10    39     3   176 0.480     42 -0.0759~ 0.0358~
    ##  4     4     1     0     4     9    25     4   929 5.80      43 -0.0759~ 0.1167~
    ##  5     5     1     0     5     1    32     5  -324 0.342     44 -0.0759~ -0.181~
    ##  6     6     1     1     7     0   112     1  -587 3.38      40 -0.0759~ 0      
    ##  7     7     1     1     8    12   193     2   963 1.75      41 -0.0759~ -0.241~
    ##  8     8     1     1     2    10    28     3  -469 0.252     42 -0.0759~ 0.1325~
    ##  9     9     1     1     5     3    67     4    22 0.0867    43 -0.0759~ -0.181~
    ## 10    10     1     1    11     5    64     5   849 4.55      44 -0.0759~ -0.602~
    ## # ... with 510 more rows

``` r
print(paste0("Total: ", n_total, " Error: ", n_error, " Pass: ", n_pass))
```

    ## [1] "Total: 520 Error: 224 Pass: 520"

``` r
results %>% 
  group_by(s, d) %>% 
  mutate(n=n(), mean_p= mean(p), sd_p = sd(p), mean_q= mean(q), sd_q = sd(q))
```

    ## # A tibble: 520 x 16
    ## # Groups:   s, d [104]
    ##    index     s     d     p     q     n   rep  mean   vara  seed phi   theta
    ##    <dbl> <int> <int> <int> <int> <int> <int> <int>  <dbl> <dbl> <chr> <chr>
    ##  1     1     1     0     0     4     5     1    97 0.0464    40 0     0.63~
    ##  2     2     1     0     6     4     5     2   991 4.29      41 -0.0~ -0.0~
    ##  3     3     1     0     9    10     5     3   176 0.480     42 -0.0~ 0.03~
    ##  4     4     1     0     4     9     5     4   929 5.80      43 -0.0~ 0.11~
    ##  5     5     1     0     5     1     5     5  -324 0.342     44 -0.0~ -0.1~
    ##  6     6     1     1     7     0     5     1  -587 3.38      40 -0.0~ 0    
    ##  7     7     1     1     8    12     5     2   963 1.75      41 -0.0~ -0.2~
    ##  8     8     1     1     2    10     5     3  -469 0.252     42 -0.0~ 0.13~
    ##  9     9     1     1     5     3     5     4    22 0.0867    43 -0.0~ -0.1~
    ## 10    10     1     1    11     5     5     5   849 4.55      44 -0.0~ -0.6~
    ## # ... with 510 more rows, and 4 more variables: mean_p <dbl>, sd_p <dbl>,
    ## #   mean_q <dbl>, sd_q <dbl>
