…
``` r
info_file_name = paste0(info_dir, "info.csv")
write.csv(results, info_file_name, row.names = FALSE)
```

``` r
print(results)
```

    ## # A tibble: 500 x 12
    ##    index     s     d     p     q     n   rep  mean   vara  seed phi   theta
    ##    <dbl> <dbl> <dbl> <dbl> <dbl> <int> <int> <int>  <dbl> <int> <chr> <chr>
    ##  1     1     0     0     0     0   340     1   176  0.639     1 0     0    
    ##  2     2     0     0     0     0   241     2   596  7.61      2 0     0    
    ##  3     3     0     0     0     0   452     3  -675  5.39      3 0     0    
    ##  4     4     0     0     0     0    80     4  -737  4.12      4 0     0    
    ##  5     5     0     0     0     0   441     5   856  1.83      5 0     0    
    ##  6     6     0     0     0     0   912     6    36  0.313     6 0     0    
    ##  7     7     0     0     0     0  1492     7  -287  2.94      7 0     0    
    ##  8     8     0     0     0     0   215     8  -441  6.72      8 0     0    
    ##  9     9     0     0     0     0   728     9  -290  8.07      9 0     0    
    ## 10    10     0     0     0     0   274    10   501 13.5      10 0     0    
    ## # ... with 490 more rows

``` r
print(paste0("Total: ", n_total, " Error: ", n_error, " Pass: ", n_pass))
```

    ## [1] "Total: 500 Error: 0 Pass: 500"

``` r
results %>% 
  group_by(s, d) %>% 
  mutate(n=n(), mean_p= mean(p), sd_p = sd(p), mean_q= mean(q), sd_q = sd(q))
```

    ## # A tibble: 500 x 16
    ## # Groups:   s, d [1]
    ##    index     s     d     p     q     n   rep  mean   vara  seed phi   theta
    ##    <dbl> <dbl> <dbl> <dbl> <dbl> <int> <int> <int>  <dbl> <int> <chr> <chr>
    ##  1     1     0     0     0     0   500     1   176  0.639     1 0     0    
    ##  2     2     0     0     0     0   500     2   596  7.61      2 0     0    
    ##  3     3     0     0     0     0   500     3  -675  5.39      3 0     0    
    ##  4     4     0     0     0     0   500     4  -737  4.12      4 0     0    
    ##  5     5     0     0     0     0   500     5   856  1.83      5 0     0    
    ##  6     6     0     0     0     0   500     6    36  0.313     6 0     0    
    ##  7     7     0     0     0     0   500     7  -287  2.94      7 0     0    
    ##  8     8     0     0     0     0   500     8  -441  6.72      8 0     0    
    ##  9     9     0     0     0     0   500     9  -290  8.07      9 0     0    
    ## 10    10     0     0     0     0   500    10   501 13.5      10 0     0    
    ## # ... with 490 more rows, and 4 more variables: mean_p <dbl>, sd_p <dbl>,
    ## #   mean_q <dbl>, sd_q <dbl>
